EESchema Schematic File Version 4
EELAYER 30 0
EELAYER END
$Descr A3 16535 11693
encoding utf-8
Sheet 7 9
Title ""
Date ""
Rev ""
Comp ""
Comment1 ""
Comment2 ""
Comment3 ""
Comment4 ""
$EndDescr
$Comp
L ValenBoard-rescue:GND-PocketBeagle #GND?
U 1 1 5FFC1B08
P 3300 3850
AR Path="/5FFC1B08" Ref="#GND?"  Part="1" 
AR Path="/5FF5BF22/5FFC1B08" Ref="#GND?"  Part="1" 
F 0 "#GND?" H 3200 3750 70  0001 L BNN
F 1 "GND" H 3300 3791 31  0000 C CNN
F 2 "" H 3300 3850 60  0001 C CNN
F 3 "" H 3300 3850 60  0001 C CNN
	1    3300 3850
	1    0    0    -1  
$EndComp
$Comp
L ValenBoard-rescue:GND-PocketBeagle #GND?
U 1 1 5FFC1B0E
P 5900 3850
AR Path="/5FFC1B0E" Ref="#GND?"  Part="1" 
AR Path="/5FF5BF22/5FFC1B0E" Ref="#GND?"  Part="1" 
F 0 "#GND?" H 5800 3750 70  0001 L BNN
F 1 "GND" H 5900 3791 31  0000 C CNN
F 2 "" H 5900 3850 60  0001 C CNN
F 3 "" H 5900 3850 60  0001 C CNN
	1    5900 3850
	1    0    0    -1  
$EndComp
$Comp
L ValenBoard-rescue:OSD3358-512M-BSM-PocketBeagle U?
U 5 1 5FFC1B14
P 4600 2450
AR Path="/5FFC1B14" Ref="U?"  Part="5" 
AR Path="/5FF5BF22/5FFC1B14" Ref="U?"  Part="5" 
F 0 "U?" H 3601 3850 70  0000 L BNN
F 1 "OSD3358-512M-BSM" H 3600 1150 70  0000 L BNN
F 2 "PocketBeagle.pretty:OSD335X-BGA-256" H 4590 2240 65  0001 L TNN
F 3 "" H 4600 2450 60  0001 C CNN
	5    4600 2450
	1    0    0    -1  
$EndComp
Wire Wire Line
	3300 1350 3300 1450
Wire Wire Line
	3300 1450 3300 1650
Wire Wire Line
	3300 1650 3300 1750
Wire Wire Line
	3300 1750 3300 1850
Wire Wire Line
	3300 1850 3300 1950
Wire Wire Line
	3300 1950 3300 2050
Wire Wire Line
	3300 2050 3300 2150
Wire Wire Line
	3300 2150 3300 2250
Wire Wire Line
	3300 2250 3300 2350
Wire Wire Line
	3300 2350 3300 2550
Wire Wire Line
	3300 2550 3300 2650
Wire Wire Line
	3300 2650 3300 2850
Wire Wire Line
	3300 2850 3300 2950
Wire Wire Line
	3300 2950 3300 3150
Wire Wire Line
	3300 3150 3300 3250
Wire Wire Line
	3300 3250 3300 3350
Wire Wire Line
	3300 3350 3300 3450
Wire Wire Line
	3300 3450 3300 3750
Wire Wire Line
	3300 1350 3400 1350
Wire Wire Line
	3400 1450 3300 1450
Wire Wire Line
	3400 1650 3300 1650
Wire Wire Line
	3400 1750 3300 1750
Wire Wire Line
	3400 1850 3300 1850
Wire Wire Line
	3400 1950 3300 1950
Wire Wire Line
	3400 2050 3300 2050
Wire Wire Line
	3400 2150 3300 2150
Wire Wire Line
	3400 2250 3300 2250
Wire Wire Line
	3400 2350 3300 2350
Wire Wire Line
	3400 2550 3300 2550
Wire Wire Line
	3400 2650 3300 2650
Wire Wire Line
	3400 2850 3300 2850
Wire Wire Line
	3400 2950 3300 2950
Wire Wire Line
	3400 3150 3300 3150
Wire Wire Line
	3400 3250 3300 3250
Wire Wire Line
	3400 3350 3300 3350
Wire Wire Line
	3400 3450 3300 3450
Connection ~ 3300 1450
Connection ~ 3300 1650
Connection ~ 3300 1750
Connection ~ 3300 1850
Connection ~ 3300 1950
Connection ~ 3300 2050
Connection ~ 3300 2150
Connection ~ 3300 2250
Connection ~ 3300 2350
Connection ~ 3300 2550
Connection ~ 3300 2650
Connection ~ 3300 2850
Connection ~ 3300 2950
Connection ~ 3300 3150
Connection ~ 3300 3250
Connection ~ 3300 3350
Connection ~ 3300 3450
Wire Wire Line
	5900 1350 5900 1450
Wire Wire Line
	5900 1450 5900 1550
Wire Wire Line
	5900 1550 5900 1650
Wire Wire Line
	5900 1650 5900 1850
Wire Wire Line
	5900 1850 5900 1950
Wire Wire Line
	5900 1950 5900 2150
Wire Wire Line
	5900 2150 5900 2250
Wire Wire Line
	5900 2250 5900 2450
Wire Wire Line
	5900 2450 5900 2550
Wire Wire Line
	5900 2550 5900 2650
Wire Wire Line
	5900 2650 5900 2750
Wire Wire Line
	5900 2750 5900 2850
Wire Wire Line
	5900 2850 5900 2950
Wire Wire Line
	5900 2950 5900 3050
Wire Wire Line
	5900 3050 5900 3150
Wire Wire Line
	5900 3150 5900 3350
Wire Wire Line
	5900 3350 5900 3450
Wire Wire Line
	5900 3450 5900 3750
Wire Wire Line
	5900 1350 5800 1350
Wire Wire Line
	5800 1450 5900 1450
Wire Wire Line
	5800 1550 5900 1550
Wire Wire Line
	5800 1650 5900 1650
Wire Wire Line
	5800 1850 5900 1850
Wire Wire Line
	5800 1950 5900 1950
Wire Wire Line
	5800 2150 5900 2150
Wire Wire Line
	5800 2250 5900 2250
Wire Wire Line
	5800 2450 5900 2450
Wire Wire Line
	5800 2550 5900 2550
Wire Wire Line
	5800 2650 5900 2650
Wire Wire Line
	5800 2750 5900 2750
Wire Wire Line
	5800 2850 5900 2850
Wire Wire Line
	5800 2950 5900 2950
Wire Wire Line
	5800 3050 5900 3050
Wire Wire Line
	5800 3150 5900 3150
Wire Wire Line
	5800 3350 5900 3350
Wire Wire Line
	5800 3450 5900 3450
Connection ~ 5900 1450
Connection ~ 5900 1550
Connection ~ 5900 1650
Connection ~ 5900 1850
Connection ~ 5900 1950
Connection ~ 5900 2150
Connection ~ 5900 2250
Connection ~ 5900 2450
Connection ~ 5900 2550
Connection ~ 5900 2650
Connection ~ 5900 2750
Connection ~ 5900 2850
Connection ~ 5900 2950
Connection ~ 5900 3050
Connection ~ 5900 3150
Connection ~ 5900 3350
Connection ~ 5900 3450
Text GLabel 3300 3750 1    10   UnSpc ~ 0
GND
Text GLabel 3400 1350 0    10   UnSpc ~ 0
GND
Text GLabel 3400 1450 0    10   UnSpc ~ 0
GND
Text GLabel 3400 1650 0    10   UnSpc ~ 0
GND
Text GLabel 3400 1750 0    10   UnSpc ~ 0
GND
Text GLabel 3400 1850 0    10   UnSpc ~ 0
GND
Text GLabel 3400 1950 0    10   UnSpc ~ 0
GND
Text GLabel 3400 2050 0    10   UnSpc ~ 0
GND
Text GLabel 3400 2150 0    10   UnSpc ~ 0
GND
Text GLabel 3400 2250 0    10   UnSpc ~ 0
GND
Text GLabel 3400 2350 0    10   UnSpc ~ 0
GND
Text GLabel 3400 2550 0    10   UnSpc ~ 0
GND
Text GLabel 3400 2650 0    10   UnSpc ~ 0
GND
Text GLabel 3400 2850 0    10   UnSpc ~ 0
GND
Text GLabel 3400 2950 0    10   UnSpc ~ 0
GND
Text GLabel 3400 3150 0    10   UnSpc ~ 0
GND
Text GLabel 3400 3250 0    10   UnSpc ~ 0
GND
Text GLabel 3400 3350 0    10   UnSpc ~ 0
GND
Text GLabel 3400 3450 0    10   UnSpc ~ 0
GND
Text GLabel 5900 3750 1    10   UnSpc ~ 0
GND
Text GLabel 5800 1350 2    10   UnSpc ~ 0
GND
Text GLabel 5800 1450 2    10   UnSpc ~ 0
GND
Text GLabel 5800 1550 2    10   UnSpc ~ 0
GND
Text GLabel 5800 1650 2    10   UnSpc ~ 0
GND
Text GLabel 5800 1850 2    10   UnSpc ~ 0
GND
Text GLabel 5800 1950 2    10   UnSpc ~ 0
GND
Text GLabel 5800 2150 2    10   UnSpc ~ 0
GND
Text GLabel 5800 2250 2    10   UnSpc ~ 0
GND
Text GLabel 5800 2450 2    10   UnSpc ~ 0
GND
Text GLabel 5800 2550 2    10   UnSpc ~ 0
GND
Text GLabel 5800 2650 2    10   UnSpc ~ 0
GND
Text GLabel 5800 2750 2    10   UnSpc ~ 0
GND
Text GLabel 5800 2850 2    10   UnSpc ~ 0
GND
Text GLabel 5800 2950 2    10   UnSpc ~ 0
GND
Text GLabel 5800 3050 2    10   UnSpc ~ 0
GND
Text GLabel 5800 3150 2    10   UnSpc ~ 0
GND
Text GLabel 5800 3350 2    10   UnSpc ~ 0
GND
Text GLabel 5800 3450 2    10   UnSpc ~ 0
GND
$Comp
L ValenBoard-rescue:PTR1B1_27-PocketBeagle TP?
U 1 1 6001558C
P 3200 6700
AR Path="/6001558C" Ref="TP?"  Part="1" 
AR Path="/5FF5BF22/6001558C" Ref="TP?"  Part="1" 
F 0 "TP?" V 3116 6633 31  0000 C CNN
F 1 "VDDS_DDR" H 3190 6590 65  0001 L TNN
F 2 "PocketBeagle.pretty:B1_27" H 3190 6490 65  0001 L TNN
F 3 "" H 3200 6700 60  0001 C CNN
	1    3200 6700
	0    1    1    0   
$EndComp
$Comp
L ValenBoard-rescue:PTR1B1_27-PocketBeagle TP?
U 1 1 60015592
P 3200 6900
AR Path="/60015592" Ref="TP?"  Part="1" 
AR Path="/5FF5BF22/60015592" Ref="TP?"  Part="1" 
F 0 "TP?" V 3116 6833 31  0000 C CNN
F 1 "VDD_CORE" H 3190 6790 65  0001 L TNN
F 2 "PocketBeagle.pretty:B1_27" H 3190 6690 65  0001 L TNN
F 3 "" H 3200 6900 60  0001 C CNN
	1    3200 6900
	0    1    1    0   
$EndComp
$Comp
L ValenBoard-rescue:PTR1B1_27-PocketBeagle TP?
U 1 1 60015598
P 3200 7100
AR Path="/60015598" Ref="TP?"  Part="1" 
AR Path="/5FF5BF22/60015598" Ref="TP?"  Part="1" 
F 0 "TP?" V 3116 7033 31  0000 C CNN
F 1 "VDD_MPU" H 3190 6990 65  0001 L TNN
F 2 "PocketBeagle.pretty:B1_27" H 3190 6890 65  0001 L TNN
F 3 "" H 3200 7100 60  0001 C CNN
	1    3200 7100
	0    1    1    0   
$EndComp
$Comp
L ValenBoard-rescue:PTR1B1_27-PocketBeagle TP?
U 1 1 6001559E
P 3200 7300
AR Path="/6001559E" Ref="TP?"  Part="1" 
AR Path="/5FF5BF22/6001559E" Ref="TP?"  Part="1" 
F 0 "TP?" V 3116 7233 31  0000 C CNN
F 1 "VDDS_PLL" H 3190 7190 65  0001 L TNN
F 2 "PocketBeagle.pretty:B1_27" H 3190 7090 65  0001 L TNN
F 3 "" H 3200 7300 60  0001 C CNN
	1    3200 7300
	0    1    1    0   
$EndComp
$Comp
L ValenBoard-rescue:OSD3358-512M-BSM-PocketBeagle U?
U 6 1 600155A4
P 3700 8400
AR Path="/600155A4" Ref="U?"  Part="6" 
AR Path="/5FF5BF22/600155A4" Ref="U?"  Part="6" 
F 0 "U?" H 3700 10400 70  0000 L BNN
F 1 "OSD3358-512M-BSM" H 3700 8300 70  0000 L BNN
F 2 "PocketBeagle.pretty:OSD335X-BGA-256" H 3690 8190 65  0001 L TNN
F 3 "" H 3700 8400 60  0001 C CNN
	6    3700 8400
	1    0    0    -1  
$EndComp
Wire Wire Line
	3500 6700 3300 6700
Wire Wire Line
	3500 6900 3300 6900
Wire Wire Line
	3500 7300 3300 7300
NoConn ~ 5700 7700
NoConn ~ 5700 7800
NoConn ~ 5700 7900
NoConn ~ 3500 7700
NoConn ~ 3500 7900
$Comp
L ValenBoard-rescue:CAPACITOR-_INCH_-0402-PocketBeagle C?
U 1 1 601A1FEA
P 15150 7400
AR Path="/601A1FEA" Ref="C?"  Part="1" 
AR Path="/5FF5BF22/601A1FEA" Ref="C?"  Part="1" 
F 0 "C?" V 15361 7400 31  0000 C CNN
F 1 "0.1uF, 6.3V" V 15299 7400 31  0000 C CNN
F 2 "PocketBeagle.pretty:0402" H 15140 7190 65  0001 L TNN
F 3 "" H 15150 7400 60  0001 C CNN
	1    15150 7400
	0    -1   -1   0   
$EndComp
$Comp
L ValenBoard-rescue:GND-PocketBeagle #GND?
U 1 1 601A1FF0
P 10050 8200
AR Path="/601A1FF0" Ref="#GND?"  Part="1" 
AR Path="/5FF5BF22/601A1FF0" Ref="#GND?"  Part="1" 
F 0 "#GND?" H 9951 8100 70  0001 L BNN
F 1 "GND" V 10050 8171 31  0000 R CNN
F 2 "" H 10050 8200 60  0001 C CNN
F 3 "" H 10050 8200 60  0001 C CNN
	1    10050 8200
	0    1    1    0   
$EndComp
$Comp
L ValenBoard-rescue:GND-PocketBeagle #GND?
U 1 1 601A1FF6
P 15350 7400
AR Path="/601A1FF6" Ref="#GND?"  Part="1" 
AR Path="/5FF5BF22/601A1FF6" Ref="#GND?"  Part="1" 
F 0 "#GND?" H 15250 7300 70  0001 L BNN
F 1 "GND" V 15350 7371 31  0000 R CNN
F 2 "" H 15350 7400 60  0001 C CNN
F 3 "" H 15350 7400 60  0001 C CNN
	1    15350 7400
	0    -1   -1   0   
$EndComp
$Comp
L ValenBoard-rescue:GND-PocketBeagle #GND?
U 1 1 601A1FFC
P 9150 5400
AR Path="/601A1FFC" Ref="#GND?"  Part="1" 
AR Path="/5FF5BF22/601A1FFC" Ref="#GND?"  Part="1" 
F 0 "#GND?" H 9050 5300 70  0001 L BNN
F 1 "GND" H 9150 5341 31  0000 C CNN
F 2 "" H 9150 5400 60  0001 C CNN
F 3 "" H 9150 5400 60  0001 C CNN
	1    9150 5400
	1    0    0    -1  
$EndComp
$Comp
L ValenBoard-rescue:GND-PocketBeagle #GND?
U 1 1 601A2002
P 14750 8000
AR Path="/601A2002" Ref="#GND?"  Part="1" 
AR Path="/5FF5BF22/601A2002" Ref="#GND?"  Part="1" 
F 0 "#GND?" H 14650 7900 70  0001 L BNN
F 1 "GND" H 14750 7941 31  0000 C CNN
F 2 "" H 14750 8000 60  0001 C CNN
F 3 "" H 14750 8000 60  0001 C CNN
	1    14750 8000
	1    0    0    -1  
$EndComp
$Comp
L ValenBoard-rescue:GND-PocketBeagle #GND?
U 1 1 601A2008
P 14150 4100
AR Path="/601A2008" Ref="#GND?"  Part="1" 
AR Path="/5FF5BF22/601A2008" Ref="#GND?"  Part="1" 
F 0 "#GND?" H 14050 4000 70  0001 L BNN
F 1 "GND" H 14150 4041 31  0000 C CNN
F 2 "" H 14150 4100 60  0001 C CNN
F 3 "" H 14150 4100 60  0001 C CNN
	1    14150 4100
	1    0    0    -1  
$EndComp
$Comp
L ValenBoard-rescue:MINI_PUSHBUTTON-PocketBeagle SW?
U 1 1 601A200E
P 9450 5100
AR Path="/601A200E" Ref="SW?"  Part="1" 
AR Path="/5FF5BF22/601A200E" Ref="SW?"  Part="1" 
F 0 "SW?" H 9450 5321 31  0000 C CNN
F 1 "POWER" H 9450 5259 31  0000 C CNN
F 2 "PocketBeagle.pretty:MINI_PUSHBUTTON" H 9050 5250 70  0001 L BNN
F 3 "" H 9450 5100 60  0001 C CNN
	1    9450 5100
	1    0    0    -1  
$EndComp
$Comp
L ValenBoard-rescue:LED-_INCH_-0603-PocketBeagle LED?
U 1 1 601A2014
P 14150 3400
AR Path="/601A2014" Ref="LED?"  Part="1" 
AR Path="/5FF5BF22/601A2014" Ref="LED?"  Part="1" 
F 0 "LED?" H 14227 3381 31  0000 L CNN
F 1 "PWR" H 14227 3319 31  0000 L CNN
F 2 "PocketBeagle.pretty:0603-LED" H 14140 3190 65  0001 L TNN
F 3 "" H 14150 3400 60  0001 C CNN
	1    14150 3400
	1    0    0    -1  
$EndComp
$Comp
L ValenBoard-rescue:RESISTOR-_INCH_-0402-PocketBeagle R?
U 1 1 601A201A
P 14150 3800
AR Path="/601A201A" Ref="R?"  Part="1" 
AR Path="/5FF5BF22/601A201A" Ref="R?"  Part="1" 
F 0 "R?" V 14196 3722 50  0000 R CNN
F 1 "1k" V 14105 3722 50  0000 R CNN
F 2 "PocketBeagle.pretty:0402" H 14140 3590 65  0001 L TNN
F 3 "" H 14150 3800 60  0001 C CNN
	1    14150 3800
	0    -1   -1   0   
$EndComp
$Comp
L ValenBoard-rescue:RESISTOR-_INCH_-0402-PocketBeagle R?
U 1 1 601A2020
P 10450 8200
AR Path="/601A2020" Ref="R?"  Part="1" 
AR Path="/5FF5BF22/601A2020" Ref="R?"  Part="1" 
F 0 "R?" H 10450 8371 31  0000 C CNN
F 1 "10k" H 10450 8309 31  0000 C CNN
F 2 "PocketBeagle.pretty:0402" H 10440 7990 65  0001 L TNN
F 3 "" H 10450 8200 60  0001 C CNN
	1    10450 8200
	1    0    0    -1  
$EndComp
$Comp
L ValenBoard-rescue:VDD_3V3A-PocketBeagle #SUPPLY?
U 1 1 601A2026
P 13750 4200
AR Path="/601A2026" Ref="#SUPPLY?"  Part="1" 
AR Path="/5FF5BF22/601A2026" Ref="#SUPPLY?"  Part="1" 
F 0 "#SUPPLY?" H 13500 4250 70  0001 L BNN
F 1 "VDD_3V3A" H 13828 4192 31  0000 L CNN
F 2 "" H 13750 4200 60  0001 C CNN
F 3 "" H 13750 4200 60  0001 C CNN
	1    13750 4200
	1    0    0    -1  
$EndComp
$Comp
L ValenBoard-rescue:VDD_RTC-PocketBeagle #SUPPLY?
U 1 1 601A202C
P 14750 7200
AR Path="/601A202C" Ref="#SUPPLY?"  Part="1" 
AR Path="/5FF5BF22/601A202C" Ref="#SUPPLY?"  Part="1" 
F 0 "#SUPPLY?" H 14750 7360 70  0001 L BNN
F 1 "VDD_RTC" H 14750 7400 31  0000 C CNN
F 2 "" H 14750 7200 60  0001 C CNN
F 3 "" H 14750 7200 60  0001 C CNN
	1    14750 7200
	1    0    0    -1  
$EndComp
$Comp
L ValenBoard-rescue:VDD_5V-PocketBeagle #SUPPLY?
U 1 1 601A2038
P 10750 1700
AR Path="/601A2038" Ref="#SUPPLY?"  Part="1" 
AR Path="/5FF5BF22/601A2038" Ref="#SUPPLY?"  Part="1" 
F 0 "#SUPPLY?" H 10750 1860 70  0001 L BNN
F 1 "VDD_5V" H 10750 1859 31  0000 C CNN
F 2 "" H 10750 1700 60  0001 C CNN
F 3 "" H 10750 1700 60  0001 C CNN
	1    10750 1700
	1    0    0    -1  
$EndComp
$Comp
L ValenBoard-rescue:USB_DC-PocketBeagle #SUPPLY?
U 1 1 601A2044
P 10750 2300
AR Path="/601A2044" Ref="#SUPPLY?"  Part="1" 
AR Path="/5FF5BF22/601A2044" Ref="#SUPPLY?"  Part="1" 
F 0 "#SUPPLY?" H 10200 2450 70  0001 L BNN
F 1 "USB_DC" H 10672 2292 31  0000 R CNN
F 2 "" H 10750 2300 60  0001 C CNN
F 3 "" H 10750 2300 60  0001 C CNN
	1    10750 2300
	1    0    0    -1  
$EndComp
Wire Wire Line
	9650 7800 10850 7800
Wire Wire Line
	15050 8200 15050 7700
Wire Wire Line
	15050 7700 14950 7700
Text Label 13850 8200 0    31   ~ 0
(U1.R11)RESET#
Wire Wire Line
	9650 5100 9750 5100
Wire Wire Line
	9750 5100 10850 5100
Wire Wire Line
	9650 5200 9750 5200
Wire Wire Line
	9750 5200 9750 5100
Connection ~ 9750 5100
Text Label 9850 5100 0    65   ~ 0
(U1.T11)PWR.BTN
Wire Wire Line
	10850 3500 10150 3500
Wire Wire Line
	9250 5100 9150 5100
Wire Wire Line
	9150 5100 9150 5200
Wire Wire Line
	9150 5200 9150 5300
Wire Wire Line
	9250 5200 9150 5200
Connection ~ 9150 5200
Wire Wire Line
	10150 8200 10250 8200
Wire Wire Line
	14750 7900 14750 7800
Wire Wire Line
	10850 8200 10650 8200
Wire Wire Line
	10750 5800 10750 5900
Wire Wire Line
	10750 5900 10850 5900
Wire Wire Line
	10850 6100 10750 6100
Wire Wire Line
	10750 6100 10750 6200
Wire Wire Line
	10750 6200 10850 6200
Wire Wire Line
	10850 6400 10750 6400
Wire Wire Line
	10750 6400 10750 6500
Wire Wire Line
	10750 6500 10850 6500
Wire Wire Line
	10850 5500 10750 5500
Wire Wire Line
	10750 5500 10750 5600
Wire Wire Line
	10750 5600 10850 5600
Wire Wire Line
	10850 7400 10750 7400
Wire Wire Line
	10750 7400 10750 7300
Wire Wire Line
	10750 7300 10850 7300
Wire Wire Line
	10850 7000 10750 7000
Wire Wire Line
	10750 7000 10750 6900
Wire Wire Line
	10750 6900 10850 6900
Wire Wire Line
	13750 7800 13750 7700
Connection ~ 13750 7700
Text Label 13850 7700 0    31   ~ 0
PMIC_PGOOD
Wire Wire Line
	13750 1800 13750 1900
Wire Wire Line
	13750 1900 13750 2000
Wire Wire Line
	13750 2000 13750 2100
Connection ~ 13750 1900
Connection ~ 13750 2000
Connection ~ 13750 1800
Wire Wire Line
	10850 2400 10750 2400
Wire Wire Line
	10750 2400 10750 2500
Wire Wire Line
	10750 2500 10750 2600
Wire Wire Line
	10750 2600 10850 2600
Wire Wire Line
	10850 2500 10750 2500
Connection ~ 10750 2500
Connection ~ 10750 2400
Wire Wire Line
	13750 6400 13950 6400
Wire Wire Line
	13750 6600 13750 6700
Wire Wire Line
	13750 6700 13750 6800
Wire Wire Line
	13750 6800 13750 6900
Wire Wire Line
	13750 6900 13750 7000
Wire Wire Line
	13750 7000 13750 7100
Connection ~ 13750 7000
Connection ~ 13750 6900
Connection ~ 13750 6800
Connection ~ 13750 6700
Connection ~ 13750 6600
Connection ~ 13750 6400
Wire Wire Line
	13750 4300 13750 4400
Wire Wire Line
	13750 4400 13750 4500
Wire Wire Line
	13750 4500 13750 4600
Wire Wire Line
	13750 4600 13750 4700
Wire Wire Line
	13750 4700 13750 4800
Wire Wire Line
	13750 4800 13750 4900
Wire Wire Line
	13750 4900 13750 5000
Wire Wire Line
	13750 5000 13750 5100
Wire Wire Line
	13750 5100 13750 5500
Wire Wire Line
	13750 5500 13750 5600
Wire Wire Line
	13750 5800 13750 5900
Wire Wire Line
	13750 5900 13750 6000
Connection ~ 13750 5800
Connection ~ 13750 5600
Connection ~ 13750 4400
Connection ~ 13750 4500
Connection ~ 13750 4600
Connection ~ 13750 4700
Connection ~ 13750 4800
Connection ~ 13750 4900
Connection ~ 13750 5000
Connection ~ 13750 5500
Connection ~ 13750 5100
Connection ~ 13750 5900
Wire Wire Line
	13750 3300 13750 3200
Wire Wire Line
	13750 3200 14150 3200
Wire Wire Line
	14150 3100 14150 3200
Wire Wire Line
	14150 3200 14150 3300
Connection ~ 13750 3200
Connection ~ 14150 3200
Wire Wire Line
	13750 2500 13750 2600
Wire Wire Line
	13750 2600 13750 2700
Wire Wire Line
	13750 2700 13750 2800
Connection ~ 13750 2600
Connection ~ 13750 2700
Connection ~ 13750 2500
Wire Wire Line
	10850 1800 10750 1800
Wire Wire Line
	10750 1800 10750 1900
Wire Wire Line
	10750 1900 10750 2000
Wire Wire Line
	10750 2000 10850 2000
Wire Wire Line
	10850 1900 10750 1900
Connection ~ 10750 1900
Connection ~ 10750 1800
Wire Wire Line
	13750 3800 13750 3700
Wire Wire Line
	14750 7300 14750 7400
Wire Wire Line
	14750 7400 14750 7600
Wire Wire Line
	15050 7400 14750 7400
Connection ~ 14750 7400
Wire Wire Line
	10150 3100 10750 3100
Wire Wire Line
	10750 3100 10850 3100
Wire Wire Line
	10850 3000 10750 3000
Wire Wire Line
	10750 3000 10750 3100
Wire Wire Line
	10750 3100 10750 3200
Wire Wire Line
	10750 3200 10750 3400
Wire Wire Line
	10750 3200 10850 3200
Wire Wire Line
	10750 3400 10850 3400
Connection ~ 10750 3100
Connection ~ 10750 3200
NoConn ~ 10850 4700
$Comp
L ValenBoard-rescue:VDD_3V3AUX-PocketBeagle #SUPPLY?
U 1 1 601A2032
P 14150 3000
AR Path="/601A2032" Ref="#SUPPLY?"  Part="1" 
AR Path="/5FF5BF22/601A2032" Ref="#SUPPLY?"  Part="1" 
F 0 "#SUPPLY?" H 14150 3250 70  0001 L BNN
F 1 "VDD_3V3AUX" H 14150 3159 31  0000 C CNN
F 2 "" H 14150 3000 60  0001 C CNN
F 3 "" H 14150 3000 60  0001 C CNN
	1    14150 3000
	1    0    0    -1  
$EndComp
$Comp
L ValenBoard-rescue:VDD_3V3B-PocketBeagle #SUPPLY?
U 1 1 601A2050
P 13750 2400
AR Path="/601A2050" Ref="#SUPPLY?"  Part="1" 
AR Path="/5FF5BF22/601A2050" Ref="#SUPPLY?"  Part="1" 
F 0 "#SUPPLY?" H 13750 2560 70  0001 L BNN
F 1 "VDD_3V3B" H 13828 2392 31  0000 L CNN
F 2 "" H 13750 2400 60  0001 C CNN
F 3 "" H 13750 2400 60  0001 C CNN
	1    13750 2400
	1    0    0    -1  
$EndComp
$Comp
L ValenBoard-rescue:SYS_5V-PocketBeagle #SUPPLY?
U 1 1 601A204A
P 13750 1700
AR Path="/601A204A" Ref="#SUPPLY?"  Part="1" 
AR Path="/5FF5BF22/601A204A" Ref="#SUPPLY?"  Part="1" 
F 0 "#SUPPLY?" H 13750 1860 70  0001 L BNN
F 1 "SYS_5V" H 13750 1859 31  0000 C CNN
F 2 "" H 13750 1700 60  0001 C CNN
F 3 "" H 13750 1700 60  0001 C CNN
	1    13750 1700
	1    0    0    -1  
$EndComp
Wire Wire Line
	15050 8200 13650 8200
Wire Wire Line
	13650 7800 13750 7800
Wire Wire Line
	13650 7700 13750 7700
Wire Wire Line
	13650 5700 13750 5700
Wire Wire Line
	13650 5100 13750 5100
Wire Wire Line
	13750 2100 13650 2100
Wire Wire Line
	13650 2000 13750 2000
Wire Wire Line
	13650 3800 13750 3800
Wire Wire Line
	13750 7100 13650 7100
Wire Wire Line
	13650 5600 13750 5600
Wire Wire Line
	13650 5000 13750 5000
Wire Wire Line
	13650 1900 13750 1900
Wire Wire Line
	13750 1800 13650 1800
Wire Wire Line
	13750 3700 13650 3700
Wire Wire Line
	13650 7000 13750 7000
Wire Wire Line
	13750 5500 13650 5500
Wire Wire Line
	13650 4900 13750 4900
Wire Wire Line
	13650 4800 13750 4800
Wire Wire Line
	13650 6900 13750 6900
Wire Wire Line
	13650 6800 13750 6800
Wire Wire Line
	13750 6000 13650 6000
Wire Wire Line
	13650 4700 13750 4700
Wire Wire Line
	13650 4600 13750 4600
Wire Wire Line
	13650 6700 13750 6700
Wire Wire Line
	13650 6600 13750 6600
Wire Wire Line
	13650 5900 13750 5900
Wire Wire Line
	13650 4500 13750 4500
Wire Wire Line
	13750 2800 13650 2800
Wire Wire Line
	13650 2700 13750 2700
Wire Wire Line
	13650 3300 13750 3300
Wire Wire Line
	13650 5800 13750 5800
Wire Wire Line
	13650 4400 13750 4400
Wire Wire Line
	13650 2600 13750 2600
Wire Wire Line
	13750 2500 13650 2500
Wire Wire Line
	13650 3200 13750 3200
Wire Wire Line
	13650 6400 13750 6400
$Comp
L ValenBoard-rescue:OSD3358-512M-BSM-PocketBeagle U?
U 1 1 601A205C
P 11050 8400
AR Path="/601A205C" Ref="U?"  Part="1" 
AR Path="/5FF5BF22/601A205C" Ref="U?"  Part="1" 
F 0 "U?" H 12250 15321 31  0000 C CNN
F 1 "OSD3358-512M-BSM" H 12250 15259 31  0000 C CNN
F 2 "PocketBeagle.pretty:OSD335X-BGA-256" H 11040 8190 65  0001 L TNN
F 3 "" H 11050 8400 60  0001 C CNN
	1    11050 8400
	1    0    0    -1  
$EndComp
Connection ~ 13750 3700
$Comp
L ValenBoard-rescue:VDD_RTC-PocketBeagle #SUPPLY?
U 1 1 601A2056
P 13750 3600
AR Path="/601A2056" Ref="#SUPPLY?"  Part="1" 
AR Path="/5FF5BF22/601A2056" Ref="#SUPPLY?"  Part="1" 
F 0 "#SUPPLY?" H 13450 3650 70  0001 L BNN
F 1 "VDD_RTC" H 13750 3759 31  0000 C CNN
F 2 "" H 13750 3600 60  0001 C CNN
F 3 "" H 13750 3600 60  0001 C CNN
	1    13750 3600
	1    0    0    -1  
$EndComp
Wire Wire Line
	13750 5700 13750 5800
Wire Wire Line
	13750 5600 13750 5700
Connection ~ 13750 5700
Wire Wire Line
	13750 6500 13750 6600
Wire Wire Line
	13750 6400 13750 6500
Connection ~ 13750 6500
Wire Wire Line
	13650 6500 13750 6500
$Comp
L ValenBoard-rescue:VDD_1V8-PocketBeagle #SUPPLY?
U 1 1 601A203E
P 14050 6400
AR Path="/601A203E" Ref="#SUPPLY?"  Part="1" 
AR Path="/5FF5BF22/601A203E" Ref="#SUPPLY?"  Part="1" 
F 0 "#SUPPLY?" H 14050 6560 70  0001 L BNN
F 1 "VDD_1V8" V 14050 6528 31  0000 L CNN
F 2 "" H 14050 6400 60  0001 C CNN
F 3 "" H 14050 6400 60  0001 C CNN
	1    14050 6400
	0    1    1    0   
$EndComp
Wire Wire Line
	13750 7700 14550 7700
$Comp
L ValenBoard-rescue:SN74LVC1G07DCK-PocketBeagle U?
U 1 1 601A2062
P 14750 7700
AR Path="/601A2062" Ref="U?"  Part="1" 
AR Path="/5FF5BF22/601A2062" Ref="U?"  Part="1" 
F 0 "U?" H 15000 7900 31  0000 C CNN
F 1 "SN74LVC1G07DCK" H 15000 7850 31  0000 C CNN
F 2 "PocketBeagle.pretty:SC70(TI-DCK)" H 14740 7490 65  0001 L TNN
F 3 "" H 14750 7700 60  0001 C CNN
	1    14750 7700
	1    0    0    -1  
$EndComp
Wire Wire Line
	10850 5800 10750 5800
Wire Wire Line
	3500 7100 3300 7100
Text HLabel 9650 7800 0    50   Input ~ 0
(U1.M2)EEPROM.WP
Text HLabel 10150 3500 0    50   Input ~ 0
BAT.TEMP
Text HLabel 10150 3100 0    50   Input ~ 0
VIN.BAT
$EndSCHEMATC
