EESchema Schematic File Version 4
EELAYER 30 0
EELAYER END
$Descr D 34000 22000
encoding utf-8
Sheet 1 9
Title "PocketBeagle KiCAD"
Date "2020-11-20"
Rev ""
Comp ""
Comment1 "Prototyped by: GHI Electronics, LLC"
Comment2 "Converted to KiCAD: QWERTY Embedded Design, LLC"
Comment3 ""
Comment4 ""
$EndDescr
NoConn ~ 25650 19700
NoConn ~ 26150 19700
NoConn ~ 26650 19700
Text Notes 14850 1050 0    254  ~ 51
Pocket Beagle\n
$Comp
L ValenBoard-rescue:FIDUCIAL-PocketBeagle FUD3
U 1 1 59920FBB
P 26650 19700
F 0 "FUD3" H 26640 19690 65  0001 L TNN
F 1 "FIDUCIAL" H 26640 19590 65  0001 L TNN
F 2 "PocketBeagle.pretty:FIDUCIAL_40MIL" H 26640 19490 65  0001 L TNN
F 3 "" H 26650 19700 60  0001 C CNN
	1    26650 19700
	1    0    0    -1  
$EndComp
$Comp
L ValenBoard-rescue:FIDUCIAL-PocketBeagle FUD2
U 1 1 59920EF3
P 26150 19700
F 0 "FUD2" H 26140 19690 65  0001 L TNN
F 1 "FIDUCIAL" H 26140 19590 65  0001 L TNN
F 2 "PocketBeagle.pretty:FIDUCIAL_40MIL" H 26140 19490 65  0001 L TNN
F 3 "" H 26150 19700 60  0001 C CNN
	1    26150 19700
	1    0    0    -1  
$EndComp
$Comp
L ValenBoard-rescue:FIDUCIAL-PocketBeagle FUD1
U 1 1 59920E2B
P 25650 19700
F 0 "FUD1" H 25640 19690 65  0001 L TNN
F 1 "FIDUCIAL" H 25640 19590 65  0001 L TNN
F 2 "PocketBeagle.pretty:FIDUCIAL_40MIL" H 25640 19490 65  0001 L TNN
F 3 "" H 25650 19700 60  0001 C CNN
	1    25650 19700
	1    0    0    -1  
$EndComp
$Sheet
S 27450 15050 4900 3950
U 603166A9
F0 "USER LEDs" 276
F1 "userleds.sch" 197
F2 "(U1.P13)USR0" I L 27450 15350 157
F3 "(U1.T14)USR1" I L 27450 16200 157
F4 "(U1.R14)USR2" I L 27450 16900 157
$EndSheet
$Sheet
S 25550 2350 7150 4550
U 5FD9CD97
F0 "conectors" 276
F1 "Connectors.sch" 197
F2 "(U1.A1)PWM0A" I L 25550 2400 47 
F3 "(U1.R5)GPIO-0.26" I L 25550 2500 47 
F4 "(U1.A12)UART0.RX" I L 25550 2600 47 
F5 "(U1.B12)UART0.TX" I L 25550 2700 47 
F6 "(U1.A10)I2C2.SCL" I L 25550 2800 47 
F7 "(U1.B10)I2C2.SDA" I L 25550 2900 47 
F8 "(U1.B4)PRU-0.16" I L 25550 3000 47 
F9 "(U1.B7)VREF+" I L 25550 3100 47 
F10 "(U1.B14)SPI0.MOSI" I L 25550 3200 47 
F11 "(U1.B13)SPI0.MISO" I L 25550 3300 47 
F12 "(U1.A13)SPI0.CLK" I L 25550 3400 47 
F13 "(U1.A14)SPI0.CS" I L 25550 3500 47 
F14 "(U1.E1)" I L 25550 3600 47 
F15 "(U1.F2)AIN6~3.3V" I L 25550 3700 47 
F16 "(U1.M14)USB1.DRVVBUS" I L 25550 3800 47 
F17 "(U1.M15)USB1.VBUS" I L 25550 3900 47 
F18 "(U1.L16)USB1.D-" I L 25550 4000 47 
F19 "(U1.L15)USB1.D+" I L 25550 4100 47 
F20 "(U1.L14)USB1.ID" I L 25550 4200 47 
F21 "(U1.B9)VREF-" I L 25550 4300 47 
F22 "(U1.A8)AIN0~1.8V" I L 25550 4400 47 
F23 "(U1.B8)AIN1~1.8V" I L 25550 4500 47 
F24 "(U1.B6)AIN2~1.8V" I L 25550 4600 47 
F25 "(U1.C6)AIN3~1.8V" I L 25550 4700 47 
F26 "(U1.C7)AIN4~1.8V" I L 25550 4800 47 
F27 "(U1.C4)PRU-0.7" I L 25550 4900 47 
F28 "(U1.A3)PRU-0.4" I L 25550 5000 47 
F29 "(U1.A2)PRU-0.1" I L 25550 5100 47 
F30 "(U1.F1)" I L 25550 5200 47 
F31 "(U1.F3)AIN5~3.3V" I L 25550 5300 47 
F32 "(U1.R6)" I L 25550 5400 47 
F33 "(U1.A4)SPI1.CS" I L 25550 5500 47 
F34 "(U1.C5)SPI1.CLK" I L 25550 5600 47 
F35 "(U1.C12)SPI1.MISO" I L 25550 5700 47 
F36 "(U1.C13)SPI1.MOSI" I L 25550 5800 47 
F37 "(U1.T5)" I L 25550 5900 47 
F38 "(U1.T7)" I R 32700 2400 47 
F39 "(U1.A11)I2C1.SDA" I R 32700 2500 47 
F40 "(U1.B11)I2C1.SCL" I R 32700 2600 47 
F41 "(U1.R16)UART4.TX" I R 32700 2700 47 
F42 "(U1.P15)UART4.RX" I R 32700 2800 47 
F43 "(U1.P5)GPIO-0.23" I R 32700 2900 47 
F44 "(U1.P12)PWM1A" I R 32700 3000 47 
F45 "(U1.T16)" I R 32700 3100 47 
F46 "(U1.R15)" I R 32700 3200 47 
F47 "(U1.T15)" I R 32700 3300 47 
F48 "(U1.N14)" I R 32700 3400 47 
F49 "(U1.R13)" I R 32700 3500 47 
F50 "(U1.T11)PWR.BTN" I R 32700 3600 47 
F51 "VIN.BAT" I R 32700 3700 47 
F52 "BAT.TEMP" I R 32700 3800 47 
F53 "(U1.P7)PRU-0.15" I R 32700 3900 47 
F54 "(U1.R7)" I R 32700 4000 47 
F55 "(U1.T6)PRU-0.14" I R 32700 4100 47 
F56 "(U1.P6)" I R 32700 4200 47 
F57 "(U1.R11)RESET#" I R 32700 4300 47 
F58 "(U1.C3)PRU-0.6" I R 32700 4400 47 
F59 "(U1.B1)PRU-0.3" I R 32700 4500 47 
F60 "(U1.B2)PRU-0.2" I R 32700 4600 47 
F61 "(U1.B3)PRU-0.5" I R 32700 4700 47 
F62 "(U1.N13)AIN7~1.8V" I R 32700 4800 47 
$EndSheet
$Sheet
S 1650 10550 4100 2750
U 602698DD
F0 "lcd" 197
F1 "LCD y Ethernet.sch" 197
F2 "(U1.G3)LCD.D0.B3" I L 1650 10600 50 
F3 "(U1.G2)LCD.D1.B4" I L 1650 10700 50 
F4 "(U1.G1)LCD.D2.B5" I L 1650 10800 50 
F5 "(U1.H3)LCD.D3.B6" I L 1650 10900 50 
F6 "(U1.H2)LCD.D4.B7" I L 1650 11000 50 
F7 "(U1.H1)LCD.D5.G2" I L 1650 11100 50 
F8 "(U1.J3)LCD.D6.G3" I L 1650 11200 50 
F9 "(U1.J2)LCD.D7.G4" I L 1650 11300 50 
F10 "(U1.J1)LCD.D8.G5" I L 1650 11400 50 
F11 "(U1.K3)LCD.D9.G6" I L 1650 11500 50 
F12 "(U1.K2)LCD.D10.G7" I L 1650 11600 50 
F13 "(U1.K1)LCD.D11.R3" I L 1650 11700 50 
F14 "(U1.L3)LCD.D12.R4" I L 1650 11800 50 
F15 "(U1.L2)LCD.D13.R5" I L 1650 11900 50 
F16 "(U1.L1)LCD.D14.R6" I L 1650 12000 50 
F17 "(U1.M3)LCD.D15.R7" I L 1650 12100 50 
F18 "(U1.F1)" I L 1650 12200 50 
F19 "(U1.F3)AIN5~3.3V" I L 1650 12300 50 
F20 "(U1.F2)AIN6~3.3V" I L 1650 12400 50 
F21 "(U1.E1)" I L 1650 12500 50 
$EndSheet
$Sheet
S 1700 3450 4200 3350
U 6020AD4A
F0 "USB" 197
F1 "usb.sch" 50
F2 "(U1.M14)USB1.DRVVBUS" I L 1700 3500 50 
F3 "(U1.L14)USB1.ID" I L 1700 3600 50 
F4 "(U1.L15)USB1.D+" I L 1700 3700 50 
F5 "(U1.L16)USB1.D-" I L 1700 3800 50 
F6 "(U1.M15)USB1.VBUS" I L 1700 3900 50 
F7 "(U1.N13)AIN7~1.8V" I L 1700 4000 50 
F8 "(U1.F2)AIN6~3.3V" I L 1700 4100 50 
F9 "(U1.F3)AIN5~3.3V" I L 1700 4200 50 
F10 "(U1.C7)AIN4~1.8V" I L 1700 4300 50 
F11 "(U1.C6)AIN3~1.8V" I L 1700 4400 50 
F12 "(U1.B6)AIN2~1.8V" I L 1700 4500 50 
F13 "(U1.B8)AIN1~1.8V" I L 1700 4600 50 
F14 "(U1.A8)AIN0~1.8V" I L 1700 4700 50 
F15 "(U1.B9)VREF-" I L 1700 4800 50 
F16 "JTAG_TMS" I L 1700 4900 50 
F17 "JTAG_TDI" I L 1700 5000 50 
F18 "JTAG_TDO" I L 1700 5100 50 
F19 "JTAG_TCK" I L 1700 5200 50 
F20 "JTAG_EMU0" I L 1700 5300 50 
F21 "JTAG_EMU1" I L 1700 5400 50 
F22 "(U1.K14)USBC.ID" I L 1700 5500 50 
F23 "(U1.K15)USBC.D+" I L 1700 5600 50 
F24 "(U1.K16)USBC.D-" I L 1700 5700 50 
F25 "JTAG_TRST#" I L 1700 5800 50 
$EndSheet
$Sheet
S 13400 2050 5300 3900
U 602D1F90
F0 "GPIO" 236
F1 "gpio.sch" 50
F2 "(U1.B12)UART0.TX" I L 13400 2100 50 
F3 "(U1.A12)UART0.RX" I L 13400 2200 50 
F4 "(U1.C12)SPI1.MISO" I L 13400 2300 50 
F5 "(U1.C13)SPI1.MOSI" I L 13400 2400 50 
F6 "(U1.B11)I2C1.SCL" I L 13400 2500 50 
F7 "(U1.A11)I2C1.SDA" I L 13400 2600 50 
F8 "(U1.B10)I2C2.SDA" I L 13400 2700 50 
F9 "(U1.A10)I2C2.SCL" I L 13400 2800 50 
F10 "(U1.A13)SPI0.CLK" I L 13400 2900 50 
F11 "(U1.B13)SPI0.MISO" I L 13400 3000 50 
F12 "(U1.B14)SPI0.MOSI" I L 13400 3100 50 
F13 "(U1.A14)SPI0.CS" I L 13400 3200 50 
F14 "(U1.C14)MMC0.CD" I L 13400 3300 50 
F15 "(U1.B15)MMC0.CLK" I L 13400 3400 50 
F16 "(U1.B16)MMC0.CMD" I L 13400 3500 50 
F17 "(U1.A16)MMC0.D0" I L 13400 3600 50 
F18 "(U1.A15)MMC0.D1" I L 13400 3700 50 
F19 "(U1.C16)MMC0.D2" I L 13400 3800 50 
F20 "(U1.C15)MMC0.D3" I L 13400 3900 50 
F21 "(U1.A1)PWM0A" I L 13400 4000 50 
F22 "(U1.A2)PRU-0.1" I L 13400 4100 50 
F23 "(U1.B2)PRU-0.2" I L 13400 4200 50 
F24 "(U1.B1)PRU-0.3" I L 13400 4300 50 
F25 "(U1.A3)PRU-0.4" I L 13400 4400 50 
F26 "(U1.B3)PRU-0.5" I L 13400 4500 50 
F27 "(U1.C3)PRU-0.6" I L 13400 4600 50 
F28 "(U1.C4)PRU-0.7" I L 13400 4700 50 
F29 "(U1.A4)SPI1.CS" I L 13400 4800 50 
F30 "(U1.B4)PRU-0.16" I L 13400 4900 50 
F31 "(U1.C5)SPI1.CLK" I L 13400 5000 50 
F32 "(U1.T7)" I L 13400 5100 50 
F33 "(U1.P12)PWM1A" I R 18700 2100 50 
F34 "(U1.R13)" I R 18700 2200 50 
F35 "(U1.P13)USR0" I R 18700 2300 50 
F36 "(U1.T14)USR1" I R 18700 2400 50 
F37 "(U1.R14)USR2" I R 18700 2500 50 
F38 "(U1.P14)USR3" I R 18700 2600 50 
F39 "(U1.T15)" I R 18700 2700 50 
F40 "(U1.R15)" I R 18700 2800 50 
F41 "(U1.T16)" I R 18700 2900 50 
F42 "(U1.N14)" I R 18700 3000 50 
F43 "(U1.P15)UART4.RX" I R 18700 3100 50 
F44 "(U1.R16)UART4.TX" I R 18700 3200 50 
F45 "(U1.R7)" I R 18700 3300 50 
F46 "(U1.P5)GPIO-0.23" I R 18700 3400 50 
F47 "(U1.R5)GPIO-0.26" I R 18700 3500 50 
F48 "(U1.T5)" I R 18700 3600 50 
F49 "(U1.P6)" I R 18700 3700 50 
F50 "(U1.R6)" I R 18700 3800 50 
F51 "(U1.T6)PRU-0.14" I R 18700 3900 50 
F52 "(U1.P7)PRU-0.15" I R 18700 4000 50 
$EndSheet
Text Label 15350 4250 0    394  ~ 79
GPIO
$Sheet
S 27350 9700 4650 2350
U 604AFD96
F0 "uSD Connector" 276
F1 "usdconnector.sch" 197
F2 "(U1.C16)MMC0.D2" I L 27350 9800 79 
F3 "(U1.C15)MMC0.D3" I L 27350 9950 79 
F4 "(U1.B16)MMC0.CMD" I L 27350 10100 79 
F5 "(U1.B15)MMC0.CLK" I L 27350 10250 79 
F6 "(U1.A16)MMC0.D0" I L 27350 10700 79 
F7 "(U1.A15)MMC0.D1" I L 27350 10550 79 
F8 "(U1.C14)MMC0.CD" I L 27350 10400 79 
$EndSheet
Text Label 29350 10950 0    394  ~ 79
uSD
Text Label 27450 4550 0    394  ~ 79
Connectors
Text Label 29900 16950 0    394  ~ 79
LEDs
Text Label 14800 18850 0    394  ~ 79
USB_Device
Text Label 3600 12150 0    394  ~ 79
LCD
Text Label 3450 5250 0    394  ~ 79
USB
Text Label 2850 17800 0    394  ~ 79
Power
$Sheet
S 2000 15950 3600 2950
U 5FF5BF22
F0 "Power" 197
F1 "power.sch" 50
F2 "(U1.M2)EEPROM.WP" I L 2000 16000 50 
F3 "BAT.TEMP" I L 2000 16100 50 
F4 "VIN.BAT" I L 2000 16200 50 
$EndSheet
$Sheet
S 13150 15700 6600 4650
U 600655CF
F0 "USB Device" 276
F1 "usbdevice.sch" 197
F2 "(U1.R14)USR2" I L 13150 16600 197
F3 "(U1.K15)USBC.D+" I L 13150 17050 197
F4 "(U1.K16)USBC.D-" I L 13150 17550 197
$EndSheet
$EndSCHEMATC
